…
    ## Rows: 129 Columns: 70
    ## ── Column specification ────────────────────────────────────────────────────────
    ## Delimiter: "\t"
    ## chr  (1): otu_id
    ## dbl (69): D1, D2, D3, D10, D57, D58, D86, D194, D195, D196, D197, D198, D214...
    ## 
    ## ℹ Use `spec()` to retrieve the full column specification for this data.
    ## ℹ Specify the column types or set `show_col_types = FALSE` to quiet this message.

``` r
Tab
```

    ## # A tibble: 129 × 70
    ##    otu_id       D1    D2    D3   D10   D57   D58   D86  D194  D195  D196  D197
    ##    <chr>     <dbl> <dbl> <dbl> <dbl> <dbl> <dbl> <dbl> <dbl> <dbl> <dbl> <dbl>
    ##  1 OTU_14834    39    66    56   125     4    18     7     0     5     1     1
    ##  2 OTU_18567     0     1     0     0     4     8    14    16    34    19    15
    ##  3 OTU_14402    10    27    32    45     2     4     4     0     1     0     0
    ##  4 OTU_14822     0     0     0     0     0     0     0     9     7    11    11
    ##  5 OTU_16757     0     0     0     0     0     0     0     8    10    12    10
    ##  6 OTU_15154     1     3     2     3     3     3     3     8    18    16     4
    ##  7 OTU_7054     16     8     4     7     1     0     6     2     9     4     8
    ##  8 OTU_1196      3     1     0     0     5     2    12    11    16    18     8
    ##  9 OTU_18954     0     0     0     0     0     0     1     5     7     2     4
    ## 10 OTU_14839     0     1     0     0     0     1     3     9    16    16     6
    ## # … with 119 more rows, and 58 more variables: D198 <dbl>, D214 <dbl>,
    ## #   D215 <dbl>, D216 <dbl>, D217 <dbl>, D218 <dbl>, D219 <dbl>, D220 <dbl>,
    ## #   D221 <dbl>, D222 <dbl>, D223 <dbl>, D224 <dbl>, D258 <dbl>, D259 <dbl>,
    ## #   D260 <dbl>, D272 <dbl>, D273 <dbl>, D274 <dbl>, D275 <dbl>, D276 <dbl>,
    ## #   D410 <dbl>, D411 <dbl>, D412 <dbl>, D413 <dbl>, D414 <dbl>, D415 <dbl>,
    ## #   D416 <dbl>, D417 <dbl>, D418 <dbl>, D419 <dbl>, D420 <dbl>, D421 <dbl>,
    ## #   D422 <dbl>, D423 <dbl>, D424 <dbl>, D425 <dbl>, D426 <dbl>, D427 <dbl>, …

``` r
Tab <- read_tsv("data/rhizo/otu_table.tsv",
                col_types = cols(otu_id = col_character(),
                                 .default = col_number()))
Tab
```

    ## # A tibble: 129 × 70
    ##    otu_id       D1    D2    D3   D10   D57   D58   D86  D194  D195  D196  D197
    ##    <chr>     <dbl> <dbl> <dbl> <dbl> <dbl> <dbl> <dbl> <dbl> <dbl> <dbl> <dbl>
    ##  1 OTU_14834    39    66    56   125     4    18     7     0     5     1     1
    ##  2 OTU_18567     0     1     0     0     4     8    14    16    34    19    15
    ##  3 OTU_14402    10    27    32    45     2     4     4     0     1     0     0
    ##  4 OTU_14822     0     0     0     0     0     0     0     9     7    11    11
    ##  5 OTU_16757     0     0     0     0     0     0     0     8    10    12    10
    ##  6 OTU_15154     1     3     2     3     3     3     3     8    18    16     4
    ##  7 OTU_7054     16     8     4     7     1     0     6     2     9     4     8
    ##  8 OTU_1196      3     1     0     0     5     2    12    11    16    18     8
    ##  9 OTU_18954     0     0     0     0     0     0     1     5     7     2     4
    ## 10 OTU_14839     0     1     0     0     0     1     3     9    16    16     6
    ## # … with 119 more rows, and 58 more variables: D198 <dbl>, D214 <dbl>,
    ## #   D215 <dbl>, D216 <dbl>, D217 <dbl>, D218 <dbl>, D219 <dbl>, D220 <dbl>,
    ## #   D221 <dbl>, D222 <dbl>, D223 <dbl>, D224 <dbl>, D258 <dbl>, D259 <dbl>,
    ## #   D260 <dbl>, D272 <dbl>, D273 <dbl>, D274 <dbl>, D275 <dbl>, D276 <dbl>,
    ## #   D410 <dbl>, D411 <dbl>, D412 <dbl>, D413 <dbl>, D414 <dbl>, D415 <dbl>,
    ## #   D416 <dbl>, D417 <dbl>, D418 <dbl>, D419 <dbl>, D420 <dbl>, D421 <dbl>,
    ## #   D422 <dbl>, D423 <dbl>, D424 <dbl>, D425 <dbl>, D426 <dbl>, D427 <dbl>, …

# Basic barplot

We need to think back to the original figure and reformat our data to
have one column for the x-axis and another for the y-axis

``` r
Tab %>%
  pivot_longer(-otu_id, names_to = "sample_id", values_to = "count")
```

    ## # A tibble: 8,901 × 3
    ##    otu_id    sample_id count
    ##    <chr>     <chr>     <dbl>
    ##  1 OTU_14834 D1           39
    ##  2 OTU_14834 D2           66
    ##  3 OTU_14834 D3           56
    ##  4 OTU_14834 D10         125
    ##  5 OTU_14834 D57           4
    ##  6 OTU_14834 D58          18
    ##  7 OTU_14834 D86           7
    ##  8 OTU_14834 D194          0
    ##  9 OTU_14834 D195          5
    ## 10 OTU_14834 D196          1
    ## # … with 8,891 more rows

Lets create a smaller subset of the data to make some basic plots

``` r
dat <- Tab %>%
  pivot_longer(-otu_id, names_to = "sample_id", values_to = "count") %>%
  filter(otu_id %in% c("OTU_14834", "OTU_18567", "OTU_14402", "OTU_14822"))
print(dat)
```

    ## # A tibble: 276 × 3
    ##    otu_id    sample_id count
    ##    <chr>     <chr>     <dbl>
    ##  1 OTU_14834 D1           39
    ##  2 OTU_14834 D2           66
    ##  3 OTU_14834 D3           56
    ##  4 OTU_14834 D10         125
    ##  5 OTU_14834 D57           4
    ##  6 OTU_14834 D58          18
    ##  7 OTU_14834 D86           7
    ##  8 OTU_14834 D194          0
    ##  9 OTU_14834 D195          5
    ## 10 OTU_14834 D196          1
    ## # … with 266 more rows
…
# Adding sample metadata

Read sample metadata

``` r
Meta <- read_tsv("data/rhizo/sample_metadata.tsv",
                 col_types = cols(.default = col_character()))
Meta
```

    ## # A tibble: 69 × 4
    ##    sample_id soil  accession fraction
    ##    <chr>     <chr> <chr>     <chr>   
    ##  1 D1        M21   Col-0     E       
    ##  2 D2        M21   Col-0     E       
    ##  3 D3        M21   Col-0     E       
    ##  4 D10       M21   Ler-0     E       
    ##  5 D57       C21   Col-0     E       
    ##  6 D58       C21   Col-0     E       
    ##  7 D86       C21   Ler-0     E       
    ##  8 D194      C21   Col-0     R       
    ##  9 D195      C21   Col-0     R       
    ## 10 D196      C21   Col-0     R       
    ## # … with 59 more rows

We **join** our long format dataset with the sample metadata table

``` r
print(dat)
```

    ## # A tibble: 276 × 3
    ##    otu_id    sample_id count
    ##    <chr>     <chr>     <dbl>
    ##  1 OTU_14834 D1           39
    ##  2 OTU_14834 D2           66
    ##  3 OTU_14834 D3           56
    ##  4 OTU_14834 D10         125
    ##  5 OTU_14834 D57           4
    ##  6 OTU_14834 D58          18
    ##  7 OTU_14834 D86           7
    ##  8 OTU_14834 D194          0
    ##  9 OTU_14834 D195          5
    ## 10 OTU_14834 D196          1
    ## # … with 266 more rows

``` r
dat <- dat %>%
  left_join(Meta, by = "sample_id")
dat
```

    ## # A tibble: 276 × 6
    ##    otu_id    sample_id count soil  accession fraction
    ##    <chr>     <chr>     <dbl> <chr> <chr>     <chr>   
    ##  1 OTU_14834 D1           39 M21   Col-0     E       
    ##  2 OTU_14834 D2           66 M21   Col-0     E       
    ##  3 OTU_14834 D3           56 M21   Col-0     E       
    ##  4 OTU_14834 D10         125 M21   Ler-0     E       
    ##  5 OTU_14834 D57           4 C21   Col-0     E       
    ##  6 OTU_14834 D58          18 C21   Col-0     E       
    ##  7 OTU_14834 D86           7 C21   Ler-0     E       
    ##  8 OTU_14834 D194          0 C21   Col-0     R       
    ##  9 OTU_14834 D195          5 C21   Col-0     R       
    ## 10 OTU_14834 D196          1 C21   Col-0     R       
    ## # … with 266 more rows
…
Re-make the plot above but show all three variables (fraction, accession
and soil) in the facets. What happens if you change the order of the
terms in the facet formulas? is any of the orders better?

# Adding OTU taxonomy

``` r
Tax <- read_tsv("data/rhizo/otu_taxonomy.tsv",
                col_types = cols(otu_id = col_character(),
                                 Phylum = col_character()))
Tax
```

    ## # A tibble: 129 × 2
    ##    otu_id    Phylum        
    ##    <chr>     <chr>         
    ##  1 OTU_14834 Actinobacteria
    ##  2 OTU_18567 Proteobacteria
    ##  3 OTU_14402 Actinobacteria
    ##  4 OTU_14822 Proteobacteria
    ##  5 OTU_16757 Bacteroidetes 
    ##  6 OTU_15154 Proteobacteria
    ##  7 OTU_7054  Firmicutes    
    ##  8 OTU_1196  Proteobacteria
    ##  9 OTU_18954 Bacteroidetes 
    ## 10 OTU_14839 Proteobacteria
    ## # … with 119 more rows

Let’s include all OTUs in our data table now

``` r
dat <-Tab %>%
  pivot_longer(-otu_id, names_to = "sample_id",
               values_to = "count")
print(dat)
```

    ## # A tibble: 8,901 × 3
    ##    otu_id    sample_id count
    ##    <chr>     <chr>     <dbl>
    ##  1 OTU_14834 D1           39
    ##  2 OTU_14834 D2           66
    ##  3 OTU_14834 D3           56
    ##  4 OTU_14834 D10         125
    ##  5 OTU_14834 D57           4
    ##  6 OTU_14834 D58          18
    ##  7 OTU_14834 D86           7
    ##  8 OTU_14834 D194          0
    ##  9 OTU_14834 D195          5
    ## 10 OTU_14834 D196          1
    ## # … with 8,891 more rows

As we did before with sample metadata, we use `left_join` to add OTU
taxonomic information to our data table

``` r
dat <- dat %>%
  left_join(Tax, by = "otu_id")
print(dat)
```

    ## # A tibble: 8,901 × 4
    ##    otu_id    sample_id count Phylum        
    ##    <chr>     <chr>     <dbl> <chr>         
    ##  1 OTU_14834 D1           39 Actinobacteria
    ##  2 OTU_14834 D2           66 Actinobacteria
    ##  3 OTU_14834 D3           56 Actinobacteria
    ##  4 OTU_14834 D10         125 Actinobacteria
    ##  5 OTU_14834 D57           4 Actinobacteria
    ##  6 OTU_14834 D58          18 Actinobacteria
    ##  7 OTU_14834 D86           7 Actinobacteria
    ##  8 OTU_14834 D194          0 Actinobacteria
    ##  9 OTU_14834 D195          5 Actinobacteria
    ## 10 OTU_14834 D196          1 Actinobacteria
    ## # … with 8,891 more rows
…
dat <- dat %>%
  mutate(Phylum = factor(Phylum, levels = phyla_order))
dat
```

    ## # A tibble: 8,901 × 4
    ##    otu_id    sample_id count Phylum        
    ##    <chr>     <chr>     <dbl> <fct>         
    ##  1 OTU_14834 D1           39 Actinobacteria
    ##  2 OTU_14834 D2           66 Actinobacteria
    ##  3 OTU_14834 D3           56 Actinobacteria
    ##  4 OTU_14834 D10         125 Actinobacteria
    ##  5 OTU_14834 D57           4 Actinobacteria
    ##  6 OTU_14834 D58          18 Actinobacteria
    ##  7 OTU_14834 D86           7 Actinobacteria
    ##  8 OTU_14834 D194          0 Actinobacteria
    ##  9 OTU_14834 D195          5 Actinobacteria
    ## 10 OTU_14834 D196          1 Actinobacteria
    ## # … with 8,891 more rows
…
# Combining sample metadata and OTU taxonomy

We can use `lef_join` twice in a row to get a combinde data table with
all the information

``` r
dat <- Tab %>%
  pivot_longer(-otu_id, names_to = "sample_id", values_to = "count") %>%
  left_join(Meta, by = "sample_id") %>%
  left_join(Tax, by = "otu_id")
print(dat)
```

    ## # A tibble: 8,901 × 7
    ##    otu_id    sample_id count soil  accession fraction Phylum        
    ##    <chr>     <chr>     <dbl> <chr> <chr>     <chr>    <chr>         
    ##  1 OTU_14834 D1           39 M21   Col-0     E        Actinobacteria
    ##  2 OTU_14834 D2           66 M21   Col-0     E        Actinobacteria
    ##  3 OTU_14834 D3           56 M21   Col-0     E        Actinobacteria
    ##  4 OTU_14834 D10         125 M21   Ler-0     E        Actinobacteria
    ##  5 OTU_14834 D57           4 C21   Col-0     E        Actinobacteria
    ##  6 OTU_14834 D58          18 C21   Col-0     E        Actinobacteria
    ##  7 OTU_14834 D86           7 C21   Ler-0     E        Actinobacteria
    ##  8 OTU_14834 D194          0 C21   Col-0     R        Actinobacteria
    ##  9 OTU_14834 D195          5 C21   Col-0     R        Actinobacteria
    ## 10 OTU_14834 D196          1 C21   Col-0     R        Actinobacteria
    ## # … with 8,891 more rows

To get the same order as above we convert the Phylum column to a factor

``` r
dat <- dat %>%
  mutate(Phylum = factor(Phylum, levels = phyla_order))
dat
```

    ## # A tibble: 8,901 × 7
    ##    otu_id    sample_id count soil  accession fraction Phylum        
    ##    <chr>     <chr>     <dbl> <chr> <chr>     <chr>    <fct>         
    ##  1 OTU_14834 D1           39 M21   Col-0     E        Actinobacteria
    ##  2 OTU_14834 D2           66 M21   Col-0     E        Actinobacteria
    ##  3 OTU_14834 D3           56 M21   Col-0     E        Actinobacteria
    ##  4 OTU_14834 D10         125 M21   Ler-0     E        Actinobacteria
    ##  5 OTU_14834 D57           4 C21   Col-0     E        Actinobacteria
    ##  6 OTU_14834 D58          18 C21   Col-0     E        Actinobacteria
    ##  7 OTU_14834 D86           7 C21   Ler-0     E        Actinobacteria
    ##  8 OTU_14834 D194          0 C21   Col-0     R        Actinobacteria
    ##  9 OTU_14834 D195          5 C21   Col-0     R        Actinobacteria
    ## 10 OTU_14834 D196          1 C21   Col-0     R        Actinobacteria
    ## # … with 8,891 more rows
…
